ERROR: File "tchecker/comp_inst_param_event_flag.cif": Semantic error at line 31, column 8: Definition/instantiation parameter mismatch for the 1st parameter of "N": the event parameter is of type "int", while the event used as argument has no type.
ERROR: File "tchecker/comp_inst_param_event_flag.cif": Semantic error at line 31, column 8: Definition/instantiation parameter mismatch for the 1st parameter of "N": the event parameter requires an event with receive (?) usage, while the event used as argument doesn't allow that usage.
ERROR: File "tchecker/comp_inst_param_event_flag.cif": Semantic error at line 31, column 8: Definition/instantiation parameter mismatch for the 1st parameter of "N": the event parameter requires an event with send (!) usage, while the event used as argument doesn't allow that usage.
ERROR: File "tchecker/comp_inst_param_event_flag.cif": Semantic error at line 32, column 8: Definition/instantiation parameter mismatch for the 1st parameter of "S": the event parameter is of type "int", while the event used as argument has no type.
ERROR: File "tchecker/comp_inst_param_event_flag.cif": Semantic error at line 32, column 8: Definition/instantiation parameter mismatch for the 1st parameter of "S": the event parameter requires an event with send (!) usage, while the event used as argument doesn't allow that usage.
ERROR: File "tchecker/comp_inst_param_event_flag.cif": Semantic error at line 33, column 8: Definition/instantiation parameter mismatch for the 1st parameter of "R": the event parameter is of type "int", while the event used as argument has no type.
ERROR: File "tchecker/comp_inst_param_event_flag.cif": Semantic error at line 33, column 8: Definition/instantiation parameter mismatch for the 1st parameter of "R": the event parameter requires an event with receive (?) usage, while the event used as argument doesn't allow that usage.
ERROR: File "tchecker/comp_inst_param_event_flag.cif": Semantic error at line 34, column 8: Definition/instantiation parameter mismatch for the 1st parameter of "C": the event parameter is of type "int", while the event used as argument has no type.
ERROR: File "tchecker/comp_inst_param_event_flag.cif": Semantic error at line 35, column 10: Definition/instantiation parameter mismatch for the 1st parameter of "SR": the event parameter is of type "int", while the event used as argument has no type.
ERROR: File "tchecker/comp_inst_param_event_flag.cif": Semantic error at line 35, column 10: Definition/instantiation parameter mismatch for the 1st parameter of "SR": the event parameter requires an event with receive (?) usage, while the event used as argument doesn't allow that usage.
ERROR: File "tchecker/comp_inst_param_event_flag.cif": Semantic error at line 35, column 10: Definition/instantiation parameter mismatch for the 1st parameter of "SR": the event parameter requires an event with send (!) usage, while the event used as argument doesn't allow that usage.
ERROR: File "tchecker/comp_inst_param_event_flag.cif": Semantic error at line 36, column 10: Definition/instantiation parameter mismatch for the 1st parameter of "SC": the event parameter is of type "int", while the event used as argument has no type.
ERROR: File "tchecker/comp_inst_param_event_flag.cif": Semantic error at line 36, column 10: Definition/instantiation parameter mismatch for the 1st parameter of "SC": the event parameter requires an event with send (!) usage, while the event used as argument doesn't allow that usage.
ERROR: File "tchecker/comp_inst_param_event_flag.cif": Semantic error at line 37, column 10: Definition/instantiation parameter mismatch for the 1st parameter of "RC": the event parameter is of type "int", while the event used as argument has no type.
ERROR: File "tchecker/comp_inst_param_event_flag.cif": Semantic error at line 37, column 10: Definition/instantiation parameter mismatch for the 1st parameter of "RC": the event parameter requires an event with receive (?) usage, while the event used as argument doesn't allow that usage.
ERROR: File "tchecker/comp_inst_param_event_flag.cif": Semantic error at line 38, column 12: Definition/instantiation parameter mismatch for the 1st parameter of "SRC": the event parameter is of type "int", while the event used as argument has no type.
ERROR: File "tchecker/comp_inst_param_event_flag.cif": Semantic error at line 38, column 12: Definition/instantiation parameter mismatch for the 1st parameter of "SRC": the event parameter requires an event with receive (?) usage, while the event used as argument doesn't allow that usage.
ERROR: File "tchecker/comp_inst_param_event_flag.cif": Semantic error at line 38, column 12: Definition/instantiation parameter mismatch for the 1st parameter of "SRC": the event parameter requires an event with send (!) usage, while the event used as argument doesn't allow that usage.
ERROR: File "tchecker/comp_inst_param_event_flag.cif": Semantic error at line 54, column 8: Definition/instantiation parameter mismatch for the 1st parameter of "X": the event parameter requires an event with synchronization (~) usage, while the event used as argument doesn't allow that usage.
ERROR: File "tchecker/comp_inst_param_event_flag.cif": Semantic error at line 55, column 8: Definition/instantiation parameter mismatch for the 1st parameter of "N": the event parameter requires an event with receive (?) usage, while the event used as argument doesn't allow that usage.
ERROR: File "tchecker/comp_inst_param_event_flag.cif": Semantic error at line 55, column 8: Definition/instantiation parameter mismatch for the 1st parameter of "N": the event parameter requires an event with synchronization (~) usage, while the event used as argument doesn't allow that usage.
ERROR: File "tchecker/comp_inst_param_event_flag.cif": Semantic error at line 57, column 8: Definition/instantiation parameter mismatch for the 1st parameter of "R": the event parameter requires an event with receive (?) usage, while the event used as argument doesn't allow that usage.
ERROR: File "tchecker/comp_inst_param_event_flag.cif": Semantic error at line 58, column 8: Definition/instantiation parameter mismatch for the 1st parameter of "C": the event parameter requires an event with synchronization (~) usage, while the event used as argument doesn't allow that usage.
ERROR: File "tchecker/comp_inst_param_event_flag.cif": Semantic error at line 59, column 10: Definition/instantiation parameter mismatch for the 1st parameter of "SR": the event parameter requires an event with receive (?) usage, while the event used as argument doesn't allow that usage.
ERROR: File "tchecker/comp_inst_param_event_flag.cif": Semantic error at line 60, column 10: Definition/instantiation parameter mismatch for the 1st parameter of "SC": the event parameter requires an event with synchronization (~) usage, while the event used as argument doesn't allow that usage.
ERROR: File "tchecker/comp_inst_param_event_flag.cif": Semantic error at line 61, column 10: Definition/instantiation parameter mismatch for the 1st parameter of "RC": the event parameter requires an event with receive (?) usage, while the event used as argument doesn't allow that usage.
ERROR: File "tchecker/comp_inst_param_event_flag.cif": Semantic error at line 61, column 10: Definition/instantiation parameter mismatch for the 1st parameter of "RC": the event parameter requires an event with synchronization (~) usage, while the event used as argument doesn't allow that usage.
ERROR: File "tchecker/comp_inst_param_event_flag.cif": Semantic error at line 62, column 12: Definition/instantiation parameter mismatch for the 1st parameter of "SRC": the event parameter requires an event with receive (?) usage, while the event used as argument doesn't allow that usage.
ERROR: File "tchecker/comp_inst_param_event_flag.cif": Semantic error at line 62, column 12: Definition/instantiation parameter mismatch for the 1st parameter of "SRC": the event parameter requires an event with synchronization (~) usage, while the event used as argument doesn't allow that usage.
ERROR: File "tchecker/comp_inst_param_event_flag.cif": Semantic error at line 66, column 8: Definition/instantiation parameter mismatch for the 1st parameter of "X": the event parameter requires an event with synchronization (~) usage, while the event used as argument doesn't allow that usage.
ERROR: File "tchecker/comp_inst_param_event_flag.cif": Semantic error at line 67, column 8: Definition/instantiation parameter mismatch for the 1st parameter of "N": the event parameter requires an event with send (!) usage, while the event used as argument doesn't allow that usage.
ERROR: File "tchecker/comp_inst_param_event_flag.cif": Semantic error at line 67, column 8: Definition/instantiation parameter mismatch for the 1st parameter of "N": the event parameter requires an event with synchronization (~) usage, while the event used as argument doesn't allow that usage.
ERROR: File "tchecker/comp_inst_param_event_flag.cif": Semantic error at line 68, column 8: Definition/instantiation parameter mismatch for the 1st parameter of "S": the event parameter requires an event with send (!) usage, while the event used as argument doesn't allow that usage.
ERROR: File "tchecker/comp_inst_param_event_flag.cif": Semantic error at line 70, column 8: Definition/instantiation parameter mismatch for the 1st parameter of "C": the event parameter requires an event with synchronization (~) usage, while the event used as argument doesn't allow that usage.
ERROR: File "tchecker/comp_inst_param_event_flag.cif": Semantic error at line 71, column 10: Definition/instantiation parameter mismatch for the 1st parameter of "SR": the event parameter requires an event with send (!) usage, while the event used as argument doesn't allow that usage.
ERROR: File "tchecker/comp_inst_param_event_flag.cif": Semantic error at line 72, column 10: Definition/instantiation parameter mismatch for the 1st parameter of "SC": the event parameter requires an event with send (!) usage, while the event used as argument doesn't allow that usage.
ERROR: File "tchecker/comp_inst_param_event_flag.cif": Semantic error at line 72, column 10: Definition/instantiation parameter mismatch for the 1st parameter of "SC": the event parameter requires an event with synchronization (~) usage, while the event used as argument doesn't allow that usage.
ERROR: File "tchecker/comp_inst_param_event_flag.cif": Semantic error at line 73, column 10: Definition/instantiation parameter mismatch for the 1st parameter of "RC": the event parameter requires an event with synchronization (~) usage, while the event used as argument doesn't allow that usage.
ERROR: File "tchecker/comp_inst_param_event_flag.cif": Semantic error at line 74, column 12: Definition/instantiation parameter mismatch for the 1st parameter of "SRC": the event parameter requires an event with send (!) usage, while the event used as argument doesn't allow that usage.
ERROR: File "tchecker/comp_inst_param_event_flag.cif": Semantic error at line 74, column 12: Definition/instantiation parameter mismatch for the 1st parameter of "SRC": the event parameter requires an event with synchronization (~) usage, while the event used as argument doesn't allow that usage.
ERROR: File "tchecker/comp_inst_param_event_flag.cif": Semantic error at line 79, column 8: Definition/instantiation parameter mismatch for the 1st parameter of "N": the event parameter requires an event with receive (?) usage, while the event used as argument doesn't allow that usage.
ERROR: File "tchecker/comp_inst_param_event_flag.cif": Semantic error at line 79, column 8: Definition/instantiation parameter mismatch for the 1st parameter of "N": the event parameter requires an event with send (!) usage, while the event used as argument doesn't allow that usage.
ERROR: File "tchecker/comp_inst_param_event_flag.cif": Semantic error at line 80, column 8: Definition/instantiation parameter mismatch for the 1st parameter of "S": the event parameter requires an event with send (!) usage, while the event used as argument doesn't allow that usage.
ERROR: File "tchecker/comp_inst_param_event_flag.cif": Semantic error at line 81, column 8: Definition/instantiation parameter mismatch for the 1st parameter of "R": the event parameter requires an event with receive (?) usage, while the event used as argument doesn't allow that usage.
ERROR: File "tchecker/comp_inst_param_event_flag.cif": Semantic error at line 83, column 10: Definition/instantiation parameter mismatch for the 1st parameter of "SR": the event parameter requires an event with receive (?) usage, while the event used as argument doesn't allow that usage.
ERROR: File "tchecker/comp_inst_param_event_flag.cif": Semantic error at line 83, column 10: Definition/instantiation parameter mismatch for the 1st parameter of "SR": the event parameter requires an event with send (!) usage, while the event used as argument doesn't allow that usage.
ERROR: File "tchecker/comp_inst_param_event_flag.cif": Semantic error at line 84, column 10: Definition/instantiation parameter mismatch for the 1st parameter of "SC": the event parameter requires an event with send (!) usage, while the event used as argument doesn't allow that usage.
ERROR: File "tchecker/comp_inst_param_event_flag.cif": Semantic error at line 85, column 10: Definition/instantiation parameter mismatch for the 1st parameter of "RC": the event parameter requires an event with receive (?) usage, while the event used as argument doesn't allow that usage.
ERROR: File "tchecker/comp_inst_param_event_flag.cif": Semantic error at line 86, column 12: Definition/instantiation parameter mismatch for the 1st parameter of "SRC": the event parameter requires an event with receive (?) usage, while the event used as argument doesn't allow that usage.
ERROR: File "tchecker/comp_inst_param_event_flag.cif": Semantic error at line 86, column 12: Definition/instantiation parameter mismatch for the 1st parameter of "SRC": the event parameter requires an event with send (!) usage, while the event used as argument doesn't allow that usage.
ERROR: File "tchecker/comp_inst_param_event_flag.cif": Semantic error at line 90, column 8: Definition/instantiation parameter mismatch for the 1st parameter of "X": the event parameter requires an event with synchronization (~) usage, while the event used as argument doesn't allow that usage.
ERROR: File "tchecker/comp_inst_param_event_flag.cif": Semantic error at line 91, column 8: Definition/instantiation parameter mismatch for the 1st parameter of "N": the event parameter requires an event with synchronization (~) usage, while the event used as argument doesn't allow that usage.
ERROR: File "tchecker/comp_inst_param_event_flag.cif": Semantic error at line 94, column 8: Definition/instantiation parameter mismatch for the 1st parameter of "C": the event parameter requires an event with synchronization (~) usage, while the event used as argument doesn't allow that usage.
ERROR: File "tchecker/comp_inst_param_event_flag.cif": Semantic error at line 96, column 10: Definition/instantiation parameter mismatch for the 1st parameter of "SC": the event parameter requires an event with synchronization (~) usage, while the event used as argument doesn't allow that usage.
ERROR: File "tchecker/comp_inst_param_event_flag.cif": Semantic error at line 97, column 10: Definition/instantiation parameter mismatch for the 1st parameter of "RC": the event parameter requires an event with synchronization (~) usage, while the event used as argument doesn't allow that usage.
ERROR: File "tchecker/comp_inst_param_event_flag.cif": Semantic error at line 98, column 12: Definition/instantiation parameter mismatch for the 1st parameter of "SRC": the event parameter requires an event with synchronization (~) usage, while the event used as argument doesn't allow that usage.
ERROR: File "tchecker/comp_inst_param_event_flag.cif": Semantic error at line 103, column 8: Definition/instantiation parameter mismatch for the 1st parameter of "N": the event parameter requires an event with receive (?) usage, while the event used as argument doesn't allow that usage.
ERROR: File "tchecker/comp_inst_param_event_flag.cif": Semantic error at line 105, column 8: Definition/instantiation parameter mismatch for the 1st parameter of "R": the event parameter requires an event with receive (?) usage, while the event used as argument doesn't allow that usage.
ERROR: File "tchecker/comp_inst_param_event_flag.cif": Semantic error at line 107, column 10: Definition/instantiation parameter mismatch for the 1st parameter of "SR": the event parameter requires an event with receive (?) usage, while the event used as argument doesn't allow that usage.
ERROR: File "tchecker/comp_inst_param_event_flag.cif": Semantic error at line 109, column 10: Definition/instantiation parameter mismatch for the 1st parameter of "RC": the event parameter requires an event with receive (?) usage, while the event used as argument doesn't allow that usage.
ERROR: File "tchecker/comp_inst_param_event_flag.cif": Semantic error at line 110, column 12: Definition/instantiation parameter mismatch for the 1st parameter of "SRC": the event parameter requires an event with receive (?) usage, while the event used as argument doesn't allow that usage.
ERROR: File "tchecker/comp_inst_param_event_flag.cif": Semantic error at line 115, column 8: Definition/instantiation parameter mismatch for the 1st parameter of "N": the event parameter requires an event with send (!) usage, while the event used as argument doesn't allow that usage.
ERROR: File "tchecker/comp_inst_param_event_flag.cif": Semantic error at line 116, column 8: Definition/instantiation parameter mismatch for the 1st parameter of "S": the event parameter requires an event with send (!) usage, while the event used as argument doesn't allow that usage.
ERROR: File "tchecker/comp_inst_param_event_flag.cif": Semantic error at line 119, column 10: Definition/instantiation parameter mismatch for the 1st parameter of "SR": the event parameter requires an event with send (!) usage, while the event used as argument doesn't allow that usage.
ERROR: File "tchecker/comp_inst_param_event_flag.cif": Semantic error at line 120, column 10: Definition/instantiation parameter mismatch for the 1st parameter of "SC": the event parameter requires an event with send (!) usage, while the event used as argument doesn't allow that usage.
ERROR: File "tchecker/comp_inst_param_event_flag.cif": Semantic error at line 122, column 12: Definition/instantiation parameter mismatch for the 1st parameter of "SRC": the event parameter requires an event with send (!) usage, while the event used as argument doesn't allow that usage.
ERROR: Failed to load CIF file "tchecker/comp_inst_param_event_flag.cif": the file has errors.
