ERROR: File "tchecker/comp_inst_param_type_loc.cif": Semantic error at line 21, column 9: Definition/instantiation parameter mismatch for the 1st parameter of "g.X": location argument required.
ERROR: File "tchecker/comp_inst_param_type_loc.cif": Semantic error at line 22, column 9: Definition/instantiation parameter mismatch for the 1st parameter of "g.X": location argument required.
ERROR: Failed to load CIF file "tchecker/comp_inst_param_type_loc.cif": the file has errors.
