WARNING: File "tchecker/reserved_name_prefix.cif": Semantic warning at line 14, column 10: Name of "c_alg" is invalid, as names starting with "e_", "c_", or "u_" are reserved for events.
WARNING: File "tchecker/reserved_name_prefix.cif": Semantic warning at line 16, column 12: Name of "c_const" is invalid, as names starting with "e_", "c_", or "u_" are reserved for events.
WARNING: File "tchecker/reserved_name_prefix.cif": Semantic warning at line 18, column 6: Name of "c_enum" is invalid, as names starting with "e_", "c_", or "u_" are reserved for events.
WARNING: File "tchecker/reserved_name_prefix.cif": Semantic warning at line 18, column 15: Name of "c_lit" is invalid, as names starting with "e_", "c_", or "u_" are reserved for events.
WARNING: File "tchecker/reserved_name_prefix.cif": Semantic warning at line 20, column 12: Name of "c_input" is invalid, as names starting with "e_", "c_", or "u_" are reserved for events.
WARNING: File "tchecker/reserved_name_prefix.cif": Semantic warning at line 22, column 6: Name of "c_type" is invalid, as names starting with "e_", "c_", or "u_" are reserved for events.
WARNING: File "tchecker/reserved_name_prefix.cif": Semantic warning at line 26, column 7: Name of "c_aut" is invalid, as names starting with "e_", "c_", or "u_" are reserved for events.
WARNING: File "tchecker/reserved_name_prefix.cif": Semantic warning at line 28, column 15: Name of "c_aut.c_var1" is invalid, as names starting with "e_", "c_", or "u_" are reserved for events.
WARNING: File "tchecker/reserved_name_prefix.cif": Semantic warning at line 29, column 15: Name of "c_aut.c_var2" is invalid, as names starting with "e_", "c_", or "u_" are reserved for events.
WARNING: File "tchecker/reserved_name_prefix.cif": Semantic warning at line 34, column 11: Name of "c_aut_def" is invalid, as names starting with "e_", "c_", or "u_" are reserved for events.
WARNING: File "tchecker/reserved_name_prefix.cif": Semantic warning at line 40, column 7: Name of "c_group" is invalid, as names starting with "e_", "c_", or "u_" are reserved for events.
WARNING: File "tchecker/reserved_name_prefix.cif": Semantic warning at line 44, column 11: Name of "c_group_def" is invalid, as names starting with "e_", "c_", or "u_" are reserved for events.
WARNING: File "tchecker/reserved_name_prefix.cif": Semantic warning at line 54, column 1: Name of "c_compinst" is invalid, as names starting with "e_", "c_", or "u_" are reserved for events.
WARNING: File "tchecker/reserved_name_prefix.cif": Semantic warning at line 56, column 15: Name of "D.c_comp_param" is invalid, as names starting with "e_", "c_", or "u_" are reserved for events.
WARNING: File "tchecker/reserved_name_prefix.cif": Semantic warning at line 56, column 38: Name of "D.c_alg_param" is invalid, as names starting with "e_", "c_", or "u_" are reserved for events.
WARNING: File "tchecker/reserved_name_prefix.cif": Semantic warning at line 56, column 60: Name of "D.c_loc_param" is invalid, as names starting with "e_", "c_", or "u_" are reserved for events.
WARNING: File "tchecker/reserved_name_prefix.cif": Semantic warning at line 58, column 12: Name of "D.u_location" is invalid, as names starting with "e_", "c_", or "u_" are reserved for events.
WARNING: File "tchecker/reserved_name_prefix.cif": Semantic warning at line 63, column 9: Name of "g.e_g" is invalid, as names starting with "e_", "c_", or "u_" are reserved for events.
