<?xml version="1.0" encoding="UTF-8" standalone="no"?>
<!-- Created with Inkscape (http://www.inkscape.org/) -->
<!--
  Copyright (c) 2010, 2022 Contributors to the Eclipse Foundation

  See the NOTICE file(s) distributed with this work for additional
  information regarding copyright ownership.

  This program and the accompanying materials are made available under the terms
  of the MIT License which is available at https://opensource.org/licenses/MIT

  SPDX-License-Identifier: MIT
-->

<svg
   xmlns:dc="http://purl.org/dc/elements/1.1/"
   xmlns:cc="http://creativecommons.org/ns#"
   xmlns:rdf="http://www.w3.org/1999/02/22-rdf-syntax-ns#"
   xmlns:svg="http://www.w3.org/2000/svg"
   xmlns="http://www.w3.org/2000/svg"
   xmlns:sodipodi="http://sodipodi.sourceforge.net/DTD/sodipodi-0.dtd"
   xmlns:inkscape="http://www.inkscape.org/namespaces/inkscape"
   width="620"
   height="180"
   id="svg2"
   version="1.1"
   inkscape:version="0.48.3.1 r9886"
   sodipodi:docname="conveyer.svg">
  <defs
     id="defs4">
    <inkscape:perspective
       sodipodi:type="inkscape:persp3d"
       inkscape:vp_x="0 : 526.18109 : 1"
       inkscape:vp_y="0 : 1000 : 0"
       inkscape:vp_z="744.09448 : 526.18109 : 1"
       inkscape:persp3d-origin="372.04724 : 350.78739 : 1"
       id="perspective10" />
    <inkscape:perspective
       id="perspective3669"
       inkscape:persp3d-origin="0.5 : 0.33333333 : 1"
       inkscape:vp_z="1 : 0.5 : 1"
       inkscape:vp_y="0 : 1000 : 0"
       inkscape:vp_x="0 : 0.5 : 1"
       sodipodi:type="inkscape:persp3d" />
    <inkscape:perspective
       id="perspective3776"
       inkscape:persp3d-origin="0.5 : 0.33333333 : 1"
       inkscape:vp_z="1 : 0.5 : 1"
       inkscape:vp_y="0 : 1000 : 0"
       inkscape:vp_x="0 : 0.5 : 1"
       sodipodi:type="inkscape:persp3d" />
  </defs>
  <sodipodi:namedview
     id="base"
     pagecolor="#ffffff"
     bordercolor="#666666"
     borderopacity="1.0"
     inkscape:pageopacity="0.0"
     inkscape:pageshadow="2"
     inkscape:zoom="2"
     inkscape:cx="280.81813"
     inkscape:cy="115.951"
     inkscape:document-units="px"
     inkscape:current-layer="svg2"
     showgrid="false"
     inkscape:window-width="1916"
     inkscape:window-height="1111"
     inkscape:window-x="0"
     inkscape:window-y="0"
     inkscape:window-maximized="1"
     showguides="true"
     inkscape:guide-bbox="true" />
  <metadata
     id="metadata7">
    <rdf:RDF>
      <cc:Work
         rdf:about="">
        <dc:format>image/svg+xml</dc:format>
        <dc:type
           rdf:resource="http://purl.org/dc/dcmitype/StillImage" />
        <dc:title />
      </cc:Work>
    </rdf:RDF>
  </metadata>
  <g
     id="belt">
    <path
       id="belt_outer"
       style="fill:#dcdcdc;fill-opacity:1;stroke:#000000;stroke-width:2;stroke-miterlimit:4;stroke-opacity:1;stroke-dasharray:none"
       d="m -174,169 c 8.28427,0 139.71573,0 148,0 8.28427,0 15,-6.7157 15,-15 0,-8.2843 -6.71573,-15 -15,-15 0,0 0,0 0,0 0,0 -148,0 -148,0 0,0 0,0 0,0 -8.28427,0 -15,6.7158 -15,15 0,8.2843 6.71573,15 15,15 z"
       sodipodi:nodetypes="ccsccccsc" />
    <path
       sodipodi:type="arc"
       style="fill:none;stroke:#000000;stroke-width:0.56521809;stroke-miterlimit:4;stroke-opacity:1;stroke-dasharray:none"
       id="path3659"
       sodipodi:cx="20.5"
       sodipodi:cy="224.5"
       sodipodi:rx="6.5"
       sodipodi:ry="6.5"
       d="m 27,224.5 c 0,3.58985 -2.910149,6.5 -6.5,6.5 -3.589851,0 -6.5,-2.91015 -6.5,-6.5 0,-3.58985 2.910149,-6.5 6.5,-6.5 3.589851,0 6.5,2.91015 6.5,6.5 z"
       transform="matrix(1.7692307,0,0,1.7692286,-210.26923,-243.19183)" />
    <path
       sodipodi:type="arc"
       style="fill:none;stroke:#000000;stroke-width:0.56521809;stroke-miterlimit:4;stroke-opacity:1;stroke-dasharray:none"
       id="path3659-9"
       sodipodi:cx="20.5"
       sodipodi:cy="224.5"
       sodipodi:rx="6.5"
       sodipodi:ry="6.5"
       d="m 27,224.5 c 0,3.58985 -2.910149,6.5 -6.5,6.5 -3.589851,0 -6.5,-2.91015 -6.5,-6.5 0,-3.58985 2.910149,-6.5 6.5,-6.5 3.589851,0 6.5,2.91015 6.5,6.5 z"
       transform="matrix(1.7692307,0,0,1.7692286,-62.26923,-243.19183)" />
    <path
       style="fill:none;stroke:#000000;stroke-width:1;stroke-linecap:butt;stroke-linejoin:miter;stroke-miterlimit:4;stroke-opacity:1;stroke-dasharray:none"
       d="m -174,148.4998 0,11.0002"
       id="path3683" />
    <path
       id="path3697"
       d="m -168.4999,153.9999 -11.0002,0"
       style="fill:none;stroke:#000000;stroke-width:1;stroke-linecap:butt;stroke-linejoin:miter;stroke-miterlimit:4;stroke-opacity:1;stroke-dasharray:none" />
    <path
       id="path3699"
       d="M -26,148.4998 -26,159.5"
       style="fill:none;stroke:#000000;stroke-width:1;stroke-linecap:butt;stroke-linejoin:miter;stroke-miterlimit:4;stroke-opacity:1;stroke-dasharray:none" />
    <path
       style="fill:none;stroke:#000000;stroke-width:1;stroke-linecap:butt;stroke-linejoin:miter;stroke-miterlimit:4;stroke-opacity:1;stroke-dasharray:none"
       d="m -20.4999,153.9999 -11.0002,0"
       id="path3701" />
  </g>
  <g
     id="box_wrapper"
     transform="translate(-180,0)">
    <rect
       style="fill:#855e42;fill-opacity:1;stroke:#000000;stroke-width:1;stroke-miterlimit:4;stroke-opacity:1;stroke-dasharray:none"
       id="box"
       width="119"
       height="44"
       x="0"
       y="93.499977"
       inkscape:label="#rect3746" />
  </g>
  <g
     id="sensor"
     transform="translate(-320,0)">
    <rect
       style="fill:#ffffff;fill-opacity:1;stroke:#000000;stroke-width:0.9810093;stroke-miterlimit:4;stroke-opacity:1;stroke-dasharray:none"
       id="sensor_box"
       width="10.018991"
       height="19.018991"
       x="275.49051"
       y="35.490482" />
    <path
       style="fill:none;stroke:#000000;stroke-width:1.03756535;stroke-linecap:butt;stroke-linejoin:miter;stroke-miterlimit:4;stroke-opacity:1;stroke-dasharray:1.03756529, 2.07513059;stroke-dashoffset:0"
       d="m 280.51466,56.57419 0,79.90703"
       id="path3754" />
    <path
       style="fill:none;stroke:#000000;stroke-width:1;stroke-miterlimit:4;stroke-opacity:1;stroke-dasharray:none;stroke-dashoffset:0"
       d="m 285.51247,56.37753 c 0,2.83595 -2.24416,5.13494 -5.01247,5.13494 -2.76831,0 -5.01247,-2.29899 -5.01247,-5.13494 0,0 0,0 0,0"
       id="path3766"
       sodipodi:nodetypes="cscc" />
    <path
       style="fill:none;stroke:#000000;stroke-width:1.00149953;stroke-miterlimit:4;stroke-opacity:1;stroke-dasharray:none;stroke-dashoffset:0"
       d="m 287.49925,57.31775 c 0,3.96003 -3.13367,7.17027 -6.99924,7.17027 -3.86559,0 -6.99926,-3.21024 -6.99926,-7.17027 0,0 0,0 0,0"
       id="path3766-2"
       sodipodi:nodetypes="cscc" />
    <path
       sodipodi:nodetypes="cscc"
       id="path3790"
       d="m 289.5,58.28055 c 0,5.09175 -4.02943,9.21945 -8.99999,9.21945 -4.97058,0 -9.00001,-4.1277 -9.00001,-9.21945 0,0 0,0 0,0"
       style="fill:none;stroke:#000000;stroke-width:1.00000823;stroke-miterlimit:4;stroke-opacity:1;stroke-dasharray:none;stroke-dashoffset:0" />
  </g>
  <text
     id="time_txt"
     y="21.773439"
     x="10.046875"
     style="font-size:40px;font-style:normal;font-weight:normal;fill:#000000;fill-opacity:1;stroke:none;font-family:Bitstream Vera Sans"
     xml:space="preserve"><tspan
       style="font-size:16px"
       y="21.773439"
       x="10.046875"
       id="tspan3813"
       sodipodi:role="line">Time: ?</tspan></text>
  <g
     id="generator">
    <rect
       style="fill:#dcdcdc;fill-opacity:1;stroke:#000000;stroke-width:1.21226168;stroke-miterlimit:4;stroke-opacity:1;stroke-dasharray:none"
       id="rect3744"
       width="118.78773"
       height="118.78773"
       x="10.606131"
       y="50.606144" />
    <rect
       inkscape:label="#rect3815"
       style="fill:#ffffff;fill-opacity:1;stroke:#000000;stroke-width:1.0198009;stroke-miterlimit:4;stroke-opacity:1;stroke-dasharray:none;stroke-dashoffset:0"
       id="gen_progress_bg"
       width="100.9802"
       height="24.9802"
       x="19.509893"
       y="103.50989" />
    <rect
       y="104"
       x="20"
       height="24"
       width="25"
       id="gen_progress"
       style="fill:#1e90ff;fill-opacity:1;stroke:none" />
    <g
       id="gen_txts">
      <text
         id="text3819"
         y="153.51562"
         x="67.30468"
         style="font-size:40px;font-style:normal;font-weight:normal;fill:#000000;fill-opacity:1;stroke:none;font-family:Bitstream Vera Sans"
         xml:space="preserve"><tspan
           style="font-size:16px"
           y="153.51562"
           x="67.30468"
           id="tspan3821"
           sodipodi:role="line">/</tspan></text>
      <text
         xml:space="preserve"
         style="font-size:40px;font-style:normal;font-weight:normal;fill:#000000;fill-opacity:1;stroke:none;font-family:Bitstream Vera Sans"
         x="21"
         y="153.51562"
         id="gen_time_txt"><tspan
           sodipodi:role="line"
           id="tspan3825"
           x="21"
           y="153.51562"
           style="font-size:16px">?</tspan></text>
      <text
         id="gen_time_total_txt"
         y="153.51562"
         x="120"
         style="font-size:40px;font-style:normal;font-weight:normal;fill:#000000;fill-opacity:1;stroke:none;font-family:Bitstream Vera Sans"
         xml:space="preserve"><tspan
           style="font-size:16px;text-align:end;text-anchor:end"
           y="153.51562"
           x="120"
           id="tspan3829"
           sodipodi:role="line">?</tspan></text>
    </g>
  </g>
  <rect
     y="50.606144"
     x="490.60614"
     height="118.78773"
     width="118.78773"
     id="exit"
     style="fill:#dcdcdc;fill-opacity:1;stroke:#000000;stroke-width:1.21226168;stroke-miterlimit:4;stroke-opacity:1;stroke-dasharray:none" />
  <g
     id="ctrl_state">
    <text
       xml:space="preserve"
       style="font-size:40px;font-style:normal;font-weight:normal;fill:#000000;fill-opacity:1;stroke:none;font-family:Bitstream Vera Sans"
       x="-170.46094"
       y="22.000002"
       id="ctrl_state_txt"
       inkscape:label="#text3875"><tspan
         sodipodi:role="line"
         id="ctrl_state_tspan"
         x="-170.46094"
         y="22.000002"
         style="font-size:16px">xx</tspan></text>
  </g>
  <text
     xml:space="preserve"
     style="font-size:40px;font-style:normal;font-weight:normal;fill:#000000;fill-opacity:1;stroke:none;font-family:Bitstream Vera Sans"
     x="490.04688"
     y="21.773439"
     id="exit_cnt_txt"><tspan
       sodipodi:role="line"
       id="tspan3019"
       x="490.04688"
       y="21.773439"
       style="font-size:16px">Exit ctount: ?</tspan></text>
</svg>
