Reading CIF file "datasynth/edge_order_missing.cif".
Preprocessing CIF specification.
Converting CIF specification to internal format.

CIF variables and location pointers:
  Nr     Kind            Type       Name  Group  BDD vars  CIF values  BDD values  Values used
  -----  --------------  ---------  ----  -----  --------  ----------  ----------  -----------
  1      input variable  int[0..3]  x     0      2 * 2     4 * 2       4 * 2       100%
  2      input variable  bool       y     1      1 * 2     2 * 2       2 * 2       100%
  -----  --------------  ---------  ----  -----  --------  ----------  ----------  -----------
  Total                                   2      6         12          12          100%

Applying automatic variable ordering:
  Number of hyperedges: 0

  Skipping automatic ordering: no hyperedges.

