Reading CIF file "datasynth/marking1.cif".
Preprocessing CIF specification.
Converting CIF specification to internal format.

CIF variables and location pointers:
  Nr     Kind               Type       Name  Group  BDD vars  CIF values  BDD values  Values used
  -----  -----------------  ---------  ----  -----  --------  ----------  ----------  -----------
  1      location pointer   n/a        p1    0      2 * 2     4 * 2       4 * 2       100%
  2      discrete variable  int[0..5]  p1.x  1      3 * 2     6 * 2       8 * 2       75%
  3      location pointer   n/a        p2    2      3 * 2     5 * 2       8 * 2       ~63%
  -----  -----------------  ---------  ----  -----  --------  ----------  ----------  -----------
  Total                                      3      16        30          40          75%

Applying automatic variable ordering:
  Number of hyperedges: 2

  Applying FORCE algorithm:
    Maximum number of iterations: 20

    Total span:                    2 (total)                 1.00 (avg/edge) [before]
    Total span:                    1 (total)                 0.50 (avg/edge) [iteration 1]
    Total span:                    1 (total)                 0.50 (avg/edge) [iteration 2]
    Total span:                    1 (total)                 0.50 (avg/edge) [after]

  Applying sliding window algorithm:
    Window length: 3

    Total span:                    1 (total)                 0.50 (avg/edge) [before]
    Total span:                    1 (total)                 0.50 (avg/edge) [after]

  Variable order changed.

CIF variables and location pointers:
  Nr     Kind               Type       Name  Group  BDD vars  CIF values  BDD values  Values used
  -----  -----------------  ---------  ----  -----  --------  ----------  ----------  -----------
  1      location pointer   n/a        p1    0      2 * 2     4 * 2       4 * 2       100%
  2      location pointer   n/a        p2    1      3 * 2     5 * 2       8 * 2       ~63%
  3      discrete variable  int[0..5]  p1.x  2      3 * 2     6 * 2       8 * 2       75%
  -----  -----------------  ---------  ----  -----  --------  ----------  ----------  -----------
  Total                                      3      16        30          40          75%

Starting data-based synthesis.

Invariant (components state plant inv):      true
Invariant (locations state plant invariant): true
Invariant (system state plant invariant):    true

Invariant (components state req invariant):  true
Invariant (locations state req invariant):   true
Invariant (system state req invariant):      true

Initial   (discrete variable 2):             p1.x = 0
Initial   (discrete variables):              p1.x = 0
Initial   (components init predicate):       true
Initial   (aut/locs init predicate):         p1.l0
Initial   (aut/locs init predicate):         p2.l0
Initial   (auts/locs init predicate):        p1.l0 and p2.l0
Initial   (uncontrolled system):             p1.l0 and (p2.l0 and p1.x = 0)
Initial   (system, combined init/plant inv): p1.l0 and (p2.l0 and p1.x = 0)
Initial   (system, combined init/state inv): p1.l0 and (p2.l0 and p1.x = 0)

Marked    (components marker predicate):     true
Marked    (aut/locs marker predicate):       (not p1.l2 or p1.x != 0) and (p1.l0 or p1.l2)
Marked    (aut/locs marker predicate):       not p2.l4 and ((not p2.l2 or 0 <= p1.x and p1.x <= 3) and (not p2.l3 or p1.x != 4))
Marked    (auts/locs marker predicate):      <bdd 24n 16p>
Marked    (uncontrolled system):             <bdd 24n 16p>
Marked    (system, combined mark/plant inv): <bdd 24n 16p>
Marked    (system, combined mark/state inv): <bdd 24n 16p>

State/event exclusion plants:
  None

State/event exclusion requirements:
  None

Uncontrolled system:
  State: (controlled-behavior: ?)
    Edge: (event: c1) (guard: p1.l0 and p2.l0) (assignments: p1 := p1.l1, p2 := p2.l1)
    Edge: (event: c1) (guard: p1.l0 and p2.l1) (assignments: p1 := p1.l1, p2 := p2.l2)
    Edge: (event: c1) (guard: p1.l0 and p2.l3) (assignments: p1 := p1.l1, p2 := p2.l4)
    Edge: (event: c1) (guard: p1.l1 and p2.l0) (assignments: p1 := p1.l2, p2 := p2.l1)
    Edge: (event: c1) (guard: p1.l1 and p2.l1) (assignments: p1 := p1.l2, p2 := p2.l2)
    Edge: (event: c1) (guard: p1.l1 and p2.l3) (assignments: p1 := p1.l2, p2 := p2.l4)
    Edge: (event: c1) (guard: p1.l2 and p2.l0) (assignments: p1 := p1.l3, p2 := p2.l1)
    Edge: (event: c1) (guard: p1.l2 and p2.l1) (assignments: p1 := p1.l3, p2 := p2.l2)
    Edge: (event: c1) (guard: p1.l2 and p2.l3) (assignments: p1 := p1.l3, p2 := p2.l4)
    Edge: (event: c2) (guard: p2.l2) (assignments: p2 := p2.l3)

Restricting behavior using state/event exclusion plants.

Initialized controlled-behavior predicate using invariants: true.

Extending controlled-behavior predicate using variable ranges.

Controlled behavior: true -> true [range: true, variable: location pointer for automaton "p2" (group: 1, domain: 2+3, BDD variables: 3, CIF/BDD values: 5/8)].
Controlled behavior: true -> true [range: true, variable: discrete variable "p1.x" of type "int[0..5]" (group: 2, domain: 4+5, BDD variables: 3, CIF/BDD values: 6/8)].

Extended controlled-behavior predicate using variable ranges: true.

Restricting behavior using state/event exclusion requirements.

Round 1: started.

Round 1: computing backward controlled-behavior predicate.
Backward controlled-behavior: <bdd 24n 16p> [marker predicate]
Backward controlled-behavior: <bdd 24n 16p> -> <bdd 23n 21p> [restricted to current/previous controlled-behavior predicate: true]
Backward reachability: iteration 1.
Backward controlled-behavior: <bdd 23n 21p> -> <bdd 26n 25p> [backward reach with edge: (event: c1) (guard: p1.l1 and p2.l0) (assignments: p1 := p1.l2, p2 := p2.l1), restricted to current/previous controlled-behavior predicate: true]
Backward controlled-behavior: <bdd 26n 25p> -> <bdd 27n 27p> [backward reach with edge: (event: c1) (guard: p1.l1 and p2.l1) (assignments: p1 := p1.l2, p2 := p2.l2), restricted to current/previous controlled-behavior predicate: true]
Backward controlled-behavior: <bdd 27n 27p> -> <bdd 22n 18p> [backward reach with edge: (event: c2) (guard: p2.l2) (assignments: p2 := p2.l3), restricted to current/previous controlled-behavior predicate: true]
Backward reachability: iteration 2.
Backward controlled-behavior: <bdd 22n 18p> -> (not p1.l0 or not p2.l4) and (not p1.l0 or (not p2.l2 and not p2.l3 or p1.x != 4)) and ((not p1.l2 or (not p2.l0 and not p2.l1 or p1.x != 0)) and ((not p1.l2 or not p2.l4) and (not p1.l2 or not p2.l2 and not p2.l3 or (1 <= p1.x and p1.x <= 3 or p1.x = 5)))) and ((not p1.l1 or (not p2.l0 or p1.x != 0)) and ((not p1.l1 or not p2.l4) and (not p1.l1 or not p2.l2)) and ((not p1.l1 or not p2.l1 or (1 <= p1.x and p1.x <= 3 or p1.x = 5)) and ((not p1.l1 or not p2.l3) and not p1.l3))) [backward reach with edge: (event: c1) (guard: p1.l1 and p2.l1) (assignments: p1 := p1.l2, p2 := p2.l2), restricted to current/previous controlled-behavior predicate: true]
Backward reachability: iteration 3.
Backward controlled-behavior: (not p1.l0 or not p2.l4) and (not p1.l0 or (not p2.l2 and not p2.l3 or p1.x != 4)) and ((not p1.l2 or (not p2.l0 and not p2.l1 or p1.x != 0)) and ((not p1.l2 or not p2.l4) and (not p1.l2 or not p2.l2 and not p2.l3 or (1 <= p1.x and p1.x <= 3 or p1.x = 5)))) and ((not p1.l1 or (not p2.l0 or p1.x != 0)) and ((not p1.l1 or not p2.l4) and (not p1.l1 or not p2.l2)) and ((not p1.l1 or not p2.l1 or (1 <= p1.x and p1.x <= 3 or p1.x = 5)) and ((not p1.l1 or not p2.l3) and not p1.l3))) [fixed point].
Controlled behavior: true -> (not p1.l0 or not p2.l4) and (not p1.l0 or (not p2.l2 and not p2.l3 or p1.x != 4)) and ((not p1.l2 or (not p2.l0 and not p2.l1 or p1.x != 0)) and ((not p1.l2 or not p2.l4) and (not p1.l2 or not p2.l2 and not p2.l3 or (1 <= p1.x and p1.x <= 3 or p1.x = 5)))) and ((not p1.l1 or (not p2.l0 or p1.x != 0)) and ((not p1.l1 or not p2.l4) and (not p1.l1 or not p2.l2)) and ((not p1.l1 or not p2.l1 or (1 <= p1.x and p1.x <= 3 or p1.x = 5)) and ((not p1.l1 or not p2.l3) and not p1.l3))).

Round 1: computing backward uncontrolled bad-state predicate.
Backward uncontrolled bad-state: <bdd 20n 24p> [current/previous controlled behavior predicate]
Backward reachability: iteration 1.

Round 1: computing forward controlled-behavior predicate.
Forward controlled-behavior: p1.l0 and (p2.l0 and p1.x = 0) [initialization predicate]
Forward reachability: iteration 1.
Controlled behavior: (not p1.l0 or not p2.l4) and (not p1.l0 or (not p2.l2 and not p2.l3 or p1.x != 4)) and ((not p1.l2 or (not p2.l0 and not p2.l1 or p1.x != 0)) and ((not p1.l2 or not p2.l4) and (not p1.l2 or not p2.l2 and not p2.l3 or (1 <= p1.x and p1.x <= 3 or p1.x = 5)))) and ((not p1.l1 or (not p2.l0 or p1.x != 0)) and ((not p1.l1 or not p2.l4) and (not p1.l1 or not p2.l2)) and ((not p1.l1 or not p2.l1 or (1 <= p1.x and p1.x <= 3 or p1.x = 5)) and ((not p1.l1 or not p2.l3) and not p1.l3))) -> p1.l0 and (p2.l0 and p1.x = 0).

Round 1: finished, need another round.

Round 2: started.

Round 2: computing backward controlled-behavior predicate.
Backward controlled-behavior: <bdd 24n 16p> [marker predicate]
Backward controlled-behavior: <bdd 24n 16p> -> p1.l0 and (p2.l0 and p1.x = 0) [restricted to current/previous controlled-behavior predicate: p1.l0 and (p2.l0 and p1.x = 0)]
Backward reachability: iteration 1.
Backward controlled-behavior: p1.l0 and (p2.l0 and p1.x = 0) [fixed point].

Round 2: computing backward uncontrolled bad-state predicate.
Backward uncontrolled bad-state: not p1.l0 or (not p2.l0 or p1.x != 0) [current/previous controlled behavior predicate]
Backward reachability: iteration 1.

Round 2: finished, controlled behavior is stable.

Computing controlled system guards.

Edge (event: c1) (guard: p1.l0 and p2.l0) (assignments: p1 := p1.l1, p2 := p2.l1): guard: p1.l0 and p2.l0 -> false.
Edge (event: c1) (guard: p1.l0 and p2.l1) (assignments: p1 := p1.l1, p2 := p2.l2): guard: p1.l0 and p2.l1 -> false.
Edge (event: c1) (guard: p1.l0 and p2.l3) (assignments: p1 := p1.l1, p2 := p2.l4): guard: p1.l0 and p2.l3 -> false.
Edge (event: c1) (guard: p1.l1 and p2.l0) (assignments: p1 := p1.l2, p2 := p2.l1): guard: p1.l1 and p2.l0 -> false.
Edge (event: c1) (guard: p1.l1 and p2.l1) (assignments: p1 := p1.l2, p2 := p2.l2): guard: p1.l1 and p2.l1 -> false.
Edge (event: c1) (guard: p1.l1 and p2.l3) (assignments: p1 := p1.l2, p2 := p2.l4): guard: p1.l1 and p2.l3 -> false.
Edge (event: c1) (guard: p1.l2 and p2.l0) (assignments: p1 := p1.l3, p2 := p2.l1): guard: p1.l2 and p2.l0 -> false.
Edge (event: c1) (guard: p1.l2 and p2.l1) (assignments: p1 := p1.l3, p2 := p2.l2): guard: p1.l2 and p2.l1 -> false.
Edge (event: c1) (guard: p1.l2 and p2.l3) (assignments: p1 := p1.l3, p2 := p2.l4): guard: p1.l2 and p2.l3 -> false.
Edge (event: c2) (guard: p2.l2) (assignments: p2 := p2.l3): guard: p2.l2 -> false.

Final synthesis result:
  State: (controlled-behavior: p1.l0 and (p2.l0 and p1.x = 0))
    Edge: (event: c1) (guard: p1.l0 and p2.l0 -> false) (assignments: p1 := p1.l1, p2 := p2.l1)
    Edge: (event: c1) (guard: p1.l0 and p2.l1 -> false) (assignments: p1 := p1.l1, p2 := p2.l2)
    Edge: (event: c1) (guard: p1.l0 and p2.l3 -> false) (assignments: p1 := p1.l1, p2 := p2.l4)
    Edge: (event: c1) (guard: p1.l1 and p2.l0 -> false) (assignments: p1 := p1.l2, p2 := p2.l1)
    Edge: (event: c1) (guard: p1.l1 and p2.l1 -> false) (assignments: p1 := p1.l2, p2 := p2.l2)
    Edge: (event: c1) (guard: p1.l1 and p2.l3 -> false) (assignments: p1 := p1.l2, p2 := p2.l4)
    Edge: (event: c1) (guard: p1.l2 and p2.l0 -> false) (assignments: p1 := p1.l3, p2 := p2.l1)
    Edge: (event: c1) (guard: p1.l2 and p2.l1 -> false) (assignments: p1 := p1.l3, p2 := p2.l2)
    Edge: (event: c1) (guard: p1.l2 and p2.l3 -> false) (assignments: p1 := p1.l3, p2 := p2.l4)
    Edge: (event: c2) (guard: p2.l2 -> false) (assignments: p2 := p2.l3)

Controlled system:                     exactly 1 state.

Initial (synthesis result):            p1.l0 and (p2.l0 and p1.x = 0)
Initial (uncontrolled system):         p1.l0 and (p2.l0 and p1.x = 0)
Initial (controlled system):           p1.l0 and (p2.l0 and p1.x = 0)
Initial (removed by supervisor):       false
Initial (added by supervisor):         true

Constructing output CIF specification.
Writing output CIF file "datasynth/marking1.ctrlsys.real.cif".
