ERROR: Code generation to Simulink failed for CIF file "codegen/declarations.cif".
CAUSE: CIF code generator failed due to unsatisfied preconditions:
 - Unsupported type "tuple(int a; int b; real c)" found with input variable "i3".
